…
``` r
homicides_summary=homicides_df%>% 
  mutate(city_state = str_c(city, state, sep = "_"),
         victim_age = as.numeric(victim_age),
         resolved = case_when(
           disposition == "Closed without arrest" ~ 0,
           disposition == "Open/No arrest" ~ 0,
           disposition == "Closed by arrest" ~ 1)) %>% 
  filter(victim_race %in% c("Black", "White"),
         !city_state %in% c("Dallas_TX", "Phoenix_AZ", "Kansas City_MO", "Tulsa_AL")) %>% 
   select(city_state, resolved, victim_age, victim_race, victim_sex)
homicides_summary
```

    ## # A tibble: 39,693 × 5
    ##    city_state     resolved victim_age victim_race victim_sex
    ##    <chr>             <dbl>      <dbl> <chr>       <chr>     
    ##  1 Albuquerque_NM        0         15 White       Female    
    ##  2 Albuquerque_NM        0         72 White       Female    
    ##  3 Albuquerque_NM        0         91 White       Female    
    ##  4 Albuquerque_NM        0         56 White       Male      
    ##  5 Albuquerque_NM        0         NA White       Male      
    ##  6 Albuquerque_NM        1         43 White       Female    
    ##  7 Albuquerque_NM        1         52 White       Male      
    ##  8 Albuquerque_NM        1         22 White       Female    
    ##  9 Albuquerque_NM        1         15 Black       Male      
    ## 10 Albuquerque_NM        1         25 Black       Male      
    ## # … with 39,683 more rows
…
``` r
cities_glm =homicides_summary %>% 
  nest(cities = -city_state) %>%
  mutate(models = map(.x =cities, ~glm(resolved ~ victim_age + victim_sex + victim_race, family = binomial(), data = .)),
         results = map(models, broom::tidy)) %>% 
  unnest(results) %>% 
  mutate(odds_ratio = exp(estimate),
         CI_low = exp(estimate - 1.96 * std.error),
         CI_high = exp(estimate + 1.96 * std.error)) %>% 
  filter(term == "victim_sexMale") %>% 
  select(city_state,odds_ratio, CI_low, CI_high)
cities_glm
```

    ## # A tibble: 47 × 4
    ##    city_state     odds_ratio CI_low CI_high
    ##    <chr>               <dbl>  <dbl>   <dbl>
    ##  1 Albuquerque_NM      1.77   0.831   3.76 
    ##  2 Atlanta_GA          1.00   0.684   1.46 
    ##  3 Baltimore_MD        0.426  0.325   0.558
    ##  4 Baton Rouge_LA      0.381  0.209   0.695
    ##  5 Birmingham_AL       0.870  0.574   1.32 
    ##  6 Boston_MA           0.674  0.356   1.28 
    ##  7 Buffalo_NY          0.521  0.290   0.935
    ##  8 Charlotte_NC        0.884  0.557   1.40 
    ##  9 Chicago_IL          0.410  0.336   0.501
    ## 10 Cincinnati_OH       0.400  0.236   0.677
    ## # … with 37 more rows
…
